…
I see a new sample size of 9,292,255--this is promising! I'll re-check the `age_group` variable.

``` r
my_nyt_data %>% count(age_group, Age) %>% 
    spread(age_group, n)
```

    ## # A tibble: 111 x 8
    ##      Age `<18` `18-24` `25-34` `35-44` `45-54` `55-64` `65+`
    ##  * <int> <int>   <int>   <int>   <int>   <int>   <int> <int>
    ##  1     3     2      NA      NA      NA      NA      NA    NA
    ##  2     4     2      NA      NA      NA      NA      NA    NA
    ##  3     5    10      NA      NA      NA      NA      NA    NA
    ##  4     6    41      NA      NA      NA      NA      NA    NA
    ##  5     7   167      NA      NA      NA      NA      NA    NA
    ##  6     8   519      NA      NA      NA      NA      NA    NA
    ##  7     9  1384      NA      NA      NA      NA      NA    NA
    ##  8    10  3592      NA      NA      NA      NA      NA    NA
    ##  9    11  8187      NA      NA      NA      NA      NA    NA
    ## 10    12 17054      NA      NA      NA      NA      NA    NA
    ## # ... with 101 more rows
…
